{
  "data": {
    "current_page": 1, 
    "data": [
      {
        "id": 1,
        "title": "Miss",
        "content": "Quidem molestias aut distinctio recusandae labore sunt sapiente.",
        "author": "justyn.dickinson",
        "created_at": "2024-09-26T05:09:13.000000Z",
        "updated_at": "2024-09-26T05:09:13.000000Z"
      },
      {
        "id": 2,
        "title": "Prof.",
        "content": "Et est non sint unde atque.",
        "author": "ludie35",
        "created_at": "2024-09-26T05:09:13.000000Z",
        "updated_at": "2024-09-26T05:09:13.000000Z"
      },
      {
        "id": 3,
        "title": "Mrs.",
        "content": "Ut consequuntur nam nisi maxime.",
        "author": "doyle.arvel",
        "created_at": "2024-09-26T05:09:13.000000Z",
        "updated_at": "2024-09-26T05:09:13.000000Z"
      },
      {
        "id": 4,
        "title": "Prof.",
        "content": "Iste deserunt sit quia perspiciatis.",
        "author": "payton.jaskolski",
        "created_at": "2024-09-26T05:09:13.000000Z",
        "updated_at": "2024-09-26T05:09:13.000000Z"
      },
      {
        "id": 5,
        "title": "Mrs.",
        "content": "Officia tempora libero blanditiis ipsum.",
        "author": "nelle.schneider",
        "created_at": "2024-09-26T05:09:13.000000Z",
        "updated_at": "2024-09-26T05:09:13.000000Z"
      },
      {
        "id": 6,
        "title": "Prof.",
        "content": "Tempora qui excepturi provident illum nulla sed fugit est.",
        "author": "htromp",
        "created_at": "2024-09-26T05:09:13.000000Z",
        "updated_at": "2024-09-26T05:09:13.000000Z"
      },
      {
        "id": 7,
        "title": "Miss",
        "content": "Officiis nihil necessitatibus sit.",
        "author": "hulda.bogisich",
        "created_at": "2024-09-26T05:09:13.000000Z",
        "updated_at": "2024-09-26T05:09:13.000000Z"
      },
      {
        "id": 8,
        "title": "Dr.",
        "content": "Voluptatem dolorem minima ut qui.",
        "author": "ztorphy",
        "created_at": "2024-09-26T05:09:13.000000Z",
        "updated_at": "2024-09-26T05:09:13.000000Z"
      },
      {
        "id": 9,
        "title": "Prof.",
        "content": "Soluta similique necessitatibus eos ad.",
        "author": "bartholome87",
        "created_at": "2024-09-26T05:09:13.000000Z",
        "updated_at": "2024-09-26T05:09:13.000000Z"
      },
      {
        "id": 10,
        "title": "Ms.",
        "content": "Cumque iste molestias temporibus odit quas asperiores.",
        "author": "jaida40",
        "created_at": "2024-09-26T05:09:13.000000Z",
        "updated_at": "2024-09-26T05:09:13.000000Z"
      }
    ],
    "first_page_url": "http://127.0.0.1:8000/api/posts?page=1",
    "from": 1,
    "last_page": 3,
    "last_page_url": "http://127.0.0.1:8000/api/posts?page=3",
    "links": [
      {
        "url": null,
        "label": "&laquo; Previous",
        "active": false
      },
      {
        "url": "http://127.0.0.1:8000/api/posts?page=1",
        "label": "1",
        "active": true
      },
      {
        "url": "http://127.0.0.1:8000/api/posts?page=2",
        "label": "2",
        "active": false
      },
      {
        "url": "http://127.0.0.1:8000/api/posts?page=3",
        "label": "3",
        "active": false
      },
      {
        "url": "http://127.0.0.1:8000/api/posts?page=2",
        "label": "Next &raquo;",
        "active": false
      }
    ],
    "next_page_url": "http://127.0.0.1:8000/api/posts?page=2",
    "path": "http://127.0.0.1:8000/api/posts",
    "per_page": 10,
    "prev_page_url": null,
    "to": 10,
    "total": 30
  }
}